# states

    Code
      vds
    Output
      # A tibble: 22 x 5
         group_decode                 group value   value_decode              stations
         <chr>                        <chr> <chr>   <chr>                     <chr>   
       1 to be at the top of the list AB    FLOOD   All VIR Sites for Flood ~ 233217  
       2 All sites in archive         ALLA  10PLUS  sites with records longe~ 233217  
       3 All sites in archive         ALLA  30PLUS  sites with records longe~ 233217  
       4 All sites in archive         ALLA  ARCHIVE Archive files             233217  
       5 All sites in archive         ALLA  FLOWA   All sites with flow (Vir~ 233217  
       6 All sites in archive         ALLA  LEVEL   All sites with level (10~ 233217  
       7 All sites in archive         ALLA  VFLOW   Virtual sites with flow   233217  
       8 Goups for the CMA areas      CMA   CCMA    <NA>                      233217  
       9 Proposed WMIS 2 Groups by me PROP  SW      <NA>                      233217  
      10 Proposed WMIS 2 Groups by me PROP  WQ      <NA>                      233217  
      # i 12 more rows
…
---

    Code
      nds
    Output
      # A tibble: 55 x 5
         group_decode                         group        value stations value_decode
         <chr>                                <chr>        <chr> <chr>    <chr>       
       1 KeyGroups used to build others       AA_KEYGROUP  ACTI~ 422004   <NA>        
       2 KeyGroups used to build others       AA_KEYGROUP  CATE~ 422004   DNR telemet~
       3 KeyGroups used to build others       AA_KEYGROUP  M_CA~ 422004   merge of CA~
       4 KeyGroups used to build others       AA_KEYGROUP  M_SP~ 422004   current dat~
       5 KeyGroups used to build others       AA_KEYGROUP  SITE~ 422004   <NA>        
       6 Station Lists - South East Area      AREA_SOUTHE~ CURR~ 422004   Current Sta~
       7 NETWORK CLASSIFICATION SITES         CLASS_AC     SFP   422004   NETWORK CLA~
       8 PRIMARY CLIENT SITES                 CLIENT1_AC   IPART 422004   PRIMARY CLI~
       9 site lists for automated client jobs CLIENT_JOBS  L_DA~ 422004   Sites With ~
      10 Valley groups for IPART Management   CLIENT_VALL~ 422_~ 422004   422 - CULGOA
      # i 45 more rows
