hydstra workflow • hydrogauge
…
returnformat = "varlist" a list with one tibble per
variable

returnformat = "sitelist" a list with one tibble per
site

returnformat = "sxvlist" a list with one tibble per
site x variable combo (including empty lists for missing
combos)

# rows.print doesn't really work with devtools::build_readme(), so use head
head(ts_days, 30)
#> # A tibble: 30 × 20
#>    error_num compressed site_short_name  longitude site_name   latitude org_name
#>        <int> <chr>      <chr>                <dbl> <chr>          <dbl> <chr>   
#>  1         0 0          BARWON @ GEELONG      144. BARWON RIV…    -38.2 Dept. S…
#>  2         0 0          BARWON @ GEELONG      144. BARWON RIV…    -38.2 Dept. S…
#>  3         0 0          BARWON @ GEELONG      144. BARWON RIV…    -38.2 Dept. S…
#>  4         0 0          BARWON @ GEELONG      144. BARWON RIV…    -38.2 Dept. S…
#>  5         0 0          BARWON @ GEELONG      144. BARWON RIV…    -38.2 Dept. S…
#>  6         0 0          BARWON @ GEELONG      144. BARWON RIV…    -38.2 Dept. S…
#>  7         0 0          BARWON @ GEELONG      144. BARWON RIV…    -38.2 Dept. S…
#>  8         0 0          BARWON @ GEELONG      144. BARWON RIV…    -38.2 Dept. S…
#>  9         0 0          BARWON @ GEELONG      144. BARWON RIV…    -38.2 Dept. S…
#> 10         0 0          BARWON @ GEELONG      144. BARWON RIV…    -38.2 Dept. S…
#> # ℹ 20 more rows
#> # ℹ 13 more variables: value <dbl>, time <dttm>, quality_codes_id <int>,
#> #   site <chr>, variable_short_name <chr>, precision <chr>, subdesc <chr>,
#> #   variable <chr>, units <chr>, variable_name <chr>, database_timezone <chr>,
#> #   quality_codes <chr>, data_type <chr>
…
ts_rain <- get_ts_traces(portal = 'Vic', 
                         site_list = c(barwon, golf), 
                         datasource = "A", 
                         var_list = c("10"),
                         start_time = 20200101,
                         end_time = 20201231,
                         interval = "day",
                         data_type = "tot",
                         multiplier = 1,
                         returnformat = 'df')

head(ts_rain, 30)
#> # A tibble: 30 × 20
#>    error_num compressed site_short_name longitude site_name    latitude org_name
#>        <int> <chr>      <chr>               <dbl> <chr>           <dbl> <chr>   
#>  1         0 0          R.G. MARYSVILLE      146. RAINGAUGE @…    -37.5 Dept. S…
#>  2         0 0          R.G. MARYSVILLE      146. RAINGAUGE @…    -37.5 Dept. S…
#>  3         0 0          R.G. MARYSVILLE      146. RAINGAUGE @…    -37.5 Dept. S…
#>  4         0 0          R.G. MARYSVILLE      146. RAINGAUGE @…    -37.5 Dept. S…
#>  5         0 0          R.G. MARYSVILLE      146. RAINGAUGE @…    -37.5 Dept. S…
#>  6         0 0          R.G. MARYSVILLE      146. RAINGAUGE @…    -37.5 Dept. S…
#>  7         0 0          R.G. MARYSVILLE      146. RAINGAUGE @…    -37.5 Dept. S…
#>  8         0 0          R.G. MARYSVILLE      146. RAINGAUGE @…    -37.5 Dept. S…
#>  9         0 0          R.G. MARYSVILLE      146. RAINGAUGE @…    -37.5 Dept. S…
#> 10         0 0          R.G. MARYSVILLE      146. RAINGAUGE @…    -37.5 Dept. S…
#> # ℹ 20 more rows
#> # ℹ 13 more variables: value <dbl>, time <dttm>, quality_codes_id <int>,
#> #   site <chr>, variable_short_name <chr>, precision <chr>, subdesc <chr>,
#> #   variable <chr>, units <chr>, variable_name <chr>, database_timezone <chr>,
#> #   quality_codes <chr>, data_type <chr>
…
