KiWIS workflow • hydrogauge
…
Finding available variables and timespans

Due to the search functionality of the KiWIS interface, we can use
gauge numbers as we do with hydstra, but we can also search more
generally. Note also that this returns a very large list, primarily due
to the values in ts_id and ts_name columns,
which arise because the various types of data and aggregations are given
unique values there, rather than being calculated, as they are for
hydstra.

station_tslist <- getTimeseriesList(portal = 'bom', station_no = c('410730', 'A4260505'))

station_tslist
#> # A tibble: 200 × 14
#>    station_name    station_no station_id ts_id ts_name ts_unitname ts_unitsymbol
#>    <chr>           <chr>      <chr>      <chr> <chr>   <chr>       <chr>        
#>  1 River Murray a… A4260505   1617110    2086… Receiv… cubic mete… cumec        
#>  2 River Murray a… A4260505   1617110    2086… Harmon… cubic mete… cumec        
#>  3 River Murray a… A4260505   1617110    2086… DMQaQc… cubic mete… cumec        
#>  4 River Murray a… A4260505   1617110    2086… DMQaQc… meter       m            
#>  5 River Murray a… A4260505   1617110    2086… DMQaQc… meter       m            
#>  6 River Murray a… A4260505   1617110    2086… Harmon… cubic mete… cumec        
#>  7 River Murray a… A4260505   1617110    2086… Harmon… meter       m            
#>  8 River Murray a… A4260505   1617110    2086… Receiv… meter       m            
#>  9 River Murray a… A4260505   1617110    2086… Combin… meter       m            
#> 10 River Murray a… A4260505   1617110    2086… DMQaQc… meter       m            
#> # ℹ 190 more rows
#> # ℹ 7 more variables: ts_path <chr>, parametertype_id <chr>,
#> #   parametertype_name <chr>, stationparameter_name <chr>, from <dttm>,
#> #   to <dttm>, database_timezone <chr>
…
RM_ts <- getTimeseriesList(portal = 'bom',
                           extra_list = list(station_name = 'River Murray*',
                                             ts_name = 'DMQaQc.Merged.DailyMean.24HR'),
                           returnfields = c('station_no', 'station_name',
                                            'ts_name', 'ts_id', 
                                            'ts_unitname', 'parametertype_name',
                                            'coverage'))

RM_ts
#> # A tibble: 199 × 9
#>    station_no station_name          ts_name ts_id ts_unitname parametertype_name
#>    <chr>      <chr>                 <chr>   <chr> <chr>       <chr>             
#>  1 A4260573   River Murray at Wool… DMQaQc… 2107… degree Cel… Water Temperature 
#>  2 A4260624   River Murray at Love… DMQaQc… 2118… meter       Water Course Level
#>  3 A4260632   River Murray at Temp… DMQaQc… 2121… meter       Water Course Level
#>  4 A4260643   River Murray at Habe… DMQaQc… 2124… microsieme… Electrical Conduc…
#>  5 A4260507   River Murray at Lock… DMQaQc… 2087… meter       Water Course Level
#>  6 A4260509   River Murray at Lock… DMQaQc… 2087… microsieme… Electrical Conduc…
#>  7 A4260521   River Murray at Mann… DMQaQc… 2091… microsieme… Electrical Conduc…
#>  8 A4260522   River Murray at Murr… DMQaQc… 2092… meter       Water Course Level
#>  9 A4260522   River Murray at Murr… DMQaQc… 2092… degree Cel… Water Temperature 
#> 10 A4260532   River Murray at Well… DMQaQc… 2097… meter       Water Course Level
#> # ℹ 189 more rows
#> # ℹ 3 more variables: from <dttm>, to <dttm>, database_timezone <chr>
…
We’ll just pull one year

ts_example <- getTimeseriesValues(portal = 'bom',
                                  ts_id = ts_example,
                                  start_time = 20100101,
                                  end_time = 20101231)

That provides a tall dataframe containing additional information
about the gauge (@tbl-ts). The returned
columns can again be adjusted with returnfields and
meta_returnfields.

# rows.print doesn't really work with devtools::build_readme(), so use head
head(ts_example, 30)
#> # A tibble: 30 × 14
#>    ts_id     station_name  station_latitude station_longitude parametertype_name
#>    <chr>     <chr>         <chr>            <chr>             <chr>             
#>  1 208648010 River Murray… ""               ""                Water Course Disc…
#>  2 208648010 River Murray… ""               ""                Water Course Disc…
#>  3 208648010 River Murray… ""               ""                Water Course Disc…
#>  4 208648010 River Murray… ""               ""                Water Course Disc…
#>  5 208648010 River Murray… ""               ""                Water Course Disc…
#>  6 208648010 River Murray… ""               ""                Water Course Disc…
#>  7 208648010 River Murray… ""               ""                Water Course Disc…
#>  8 208648010 River Murray… ""               ""                Water Course Disc…
#>  9 208648010 River Murray… ""               ""                Water Course Disc…
#> 10 208648010 River Murray… ""               ""                Water Course Disc…
#> # ℹ 20 more rows
#> # ℹ 9 more variables: ts_name <chr>, ts_unitname <chr>, ts_unitsymbol <chr>,
#> #   station_no <chr>, station_id <chr>, value <dbl>, quality_code <int>,
#> #   time <dttm>, database_timezone <chr>
…
